{
    "dev": {
        "app_function": "app.app",
        "aws_region": "eu-central-1",
        "profile_name": "zappa",
        "project_name": "DeMan",
        "runtime": "python3.8",
        "s3_bucket": "zappa-obci2do4o",
        "cors": true
    }
}